{
  "swagger": "2.0",
  "info": {
    "version": "1.0.0",
    "title": "Scrooge Bank",
    "description": "My User Project Application API",
    "license": {
      "name": "MIT",
      "url": "https://opensource.org/licenses/MIT"
    }
  },
  "host": "localhost:3000",
  "basePath": "/",
  "tags": [
    {
      "name": "Users",
      "description": "API for users in the system"
    }
  ],
  "schemes": ["http"],
  "consumes": ["application/json"],
  "produces": ["application/json"],
  "paths": {
    "/user": {
      "post": {
        "tags": ["Users"],
        "summary": "Get all users in system",
        "responses": {
          "200": {
            "description": "OK",
            "schema": {
              "$ref": "#/definitions/User"
            }
          }
        }
      }
    }
  },
  "definitions": {
    "User": {
      "required": ["name", "_id", "companies"],
      "properties": {
        "_id": {
          "type": "integer",
          "uniqueItems": true
        },
        "isPublic": {
          "type": "boolean"
        },
        "name": {
          "type": "string"
        },
        "books": {
          "type": "array",
          "items": {
            "type": "object",
            "properties": {
              "name": {
                "type": "string"
              },
              "amount": {
                "type": "number"
              }
            }
          }
        },
        "companies": {
          "type": "array",
          "items": {
            "type": "string"
          }
        }
      }
    }
  }
}